full_adder/result.vcd
$date
  Thu Feb  1 15:29:57 2024
$end
$version
  GHDL v0
$end
$timescale
  1 fs
$end
$scope module standard $end
$upscope $end
$scope module std_logic_1164 $end
$upscope $end
$scope module fulladdertest $end
$var reg 1 ! a $end
$var reg 1 " b $end
$var reg 1 # cin $end
$var reg 1 $ s $end
$var reg 1 % c $end
$scope module uut $end
$var reg 1 & a $end
$var reg 1 ' b $end
$var reg 1 ( cin $end
$var reg 1 ) s $end
$var reg 1 * c $end
$var reg 1 + s1 $end
$var reg 1 , c1 $end
$var reg 1 - c2 $end
$scope module ha1 $end
$var reg 1 . a $end
$var reg 1 / b $end
$var reg 1 0 s $end
$var reg 1 1 c $end
$upscope $end
$scope module ha2 $end
$var reg 1 2 a $end
$var reg 1 3 b $end
$var reg 1 4 s $end
$var reg 1 5 c $end
$upscope $end
$scope module or1 $end
$var reg 1 6 x $end
$var reg 1 7 y $end
$var reg 1 8 z $end
$upscope $end
$upscope $end
$upscope $end
$enddefinitions $end
#0
0!
0"
0#
0$
0%
0&
0'
0(
0)
0*
0+
0,
0-
0.
0/
00
01
02
03
04
05
06
07
08
#10000000
1#
1$
1(
1)
13
14
#20000000
1"
0#
1$
1'
0(
1)
1+
1/
10
12
03
14
#30000000
1#
0$
1%
1(
0)
1*
1-
13
04
15
17
18
#40000000
1!
0"
0#
1$
0%
1&
0'
0(
1)
0*
0-
1.
0/
03
14
05
07
08
#50000000
1#
0$
1%
1(
0)
1*
1-
13
04
15
17
18
#60000000
1"
0#
0$
1'
0(
0)
0+
1,
0-
1/
00
11
02
03
04
05
16
07
#70000000
1#
1$
1(
1)
13
14
